70BiomColl_AdvDataVisR - Tutorial: Advanced data visualization in R
…
Thus, we could simply create the same ggplot three times: once for each variable. While this is certainly an option and call for packages such as {patchwork} or {cowplot}, we can also achieve our goal via facets within the same ggplot.

data prep

To do that, we need to restructure our data so that all values are in the same column:

dat_long <- dat %>%
  pivot_longer(
    cols = c(lifeExp, pop, gdpPercap),
    names_to = "statistic",
    values_to = "value"
  )

dat_long
#> # A tibble: 42 × 5
#>    country continent year  statistic      value
#>    <fct>   <fct>     <fct> <chr>          <dbl>
#>  1 Canada  Americas  1952  lifeExp         68.8
#>  2 Canada  Americas  1952  pop       14785584  
#>  3 Canada  Americas  1952  gdpPercap    11367. 
#>  4 Canada  Americas  2007  lifeExp         80.7
#>  5 Canada  Americas  2007  pop       33390141  
#>  6 Canada  Americas  2007  gdpPercap    36319. 
#>  7 Germany Europe    1952  lifeExp         67.5
#>  8 Germany Europe    1952  pop       69145952  
#>  9 Germany Europe    1952  gdpPercap     7144. 
#> 10 Germany Europe    2007  lifeExp         79.4
#> # ℹ 32 more rows
…
